{
  "main.css": "static/css/main.50810bba.css",
  "main.css.map": "static/css/main.50810bba.css.map",
  "main.js": "static/js/main.ebb98f23.js",
  "main.js.map": "static/js/main.ebb98f23.js.map",
  "static/media/autumn.jpg": "static/media/autumn.966ef3a9.jpg",
  "static/media/logo.svg": "static/media/logo.5d5d9eef.svg",
  "static/media/photo.jpg": "static/media/photo.981b4d72.jpg",
  "static/media/spring.jpg": "static/media/spring.d8a13a1c.jpg",
  "static/media/summer.jpg": "static/media/summer.8091c6d6.jpg",
  "static/media/winter.jpg": "static/media/winter.75e44b99.jpg"
}